<?xml version="1.0" encoding="UTF-8"?>
<svg width="70px" height="100px" viewBox="0 0 70 100" version="1.1" xmlns="http://www.w3.org/2000/svg" xmlns:xlink="http://www.w3.org/1999/xlink">
    <!-- Generator: Sketch 51.2 (57519) - http://www.bohemiancoding.com/sketch -->
    <title>logo designs</title>
    <desc>Created with Sketch.</desc>
    <defs></defs>
    <g id="Page-1" stroke="none" stroke-width="1" fill="none" fill-rule="evenodd" stroke-linecap="square">
        <g id="logo-designs" transform="translate(-454.000000, -121.000000)" stroke="#50B6E3" stroke-width="3">
            <path d="M474.014512,147.240497 L477.057113,172.359517 C477.178751,173.363732 478.031046,174.119021 479.042601,174.119021 L484.807822,174.119021 C485.912391,174.119021 486.807822,175.014451 486.807822,176.119021 C486.807822,176.240534 486.796748,176.361794 486.774737,176.481297 L483.371939,194.956198 C483.17186,196.042495 483.890281,197.08531 484.976578,197.285389 C485.852134,197.446653 486.728871,197.009762 487.127343,196.213632 L503.107717,164.285505 C503.6021,163.29775 503.202142,162.09624 502.214387,161.601858 C501.936486,161.462766 501.629995,161.390347 501.319229,161.390347 L491.919904,161.390347 C490.815334,161.390347 489.919904,160.494916 489.919904,159.390347 C489.919904,159.261883 489.932281,159.133719 489.956864,159.007629 L492.223276,147.382718 C492.434645,146.29856 491.72711,145.248329 490.642953,145.03696 C490.516864,145.012377 490.388699,145 490.260236,145 L476,145 C474.895431,145 474,145.895431 474,147 C474,147.080384 474.004846,147.160696 474.014512,147.240497 Z" id="Line-5-Copy-5"></path>
        </g>
    </g>
</svg>